…
predict_boots() works by creating 2000 bootstrap resamples of the training data, fitting a linear model to each resample, then generating 2000 predictions for each home’s price in the holdout set. We can then use summarise_predictions() to generate upper and lower intervals for each prediction.

ames_preds_boot %>%
  summarise_predictions()

## # A tibble: 733 x 5
##    rowid .preds               .pred_lower .pred .pred_upper
##    <int> <list>                     <dbl> <dbl>       <dbl>
##  1     1 <tibble [2,000 x 2]>        5.17  5.44        5.71
##  2     2 <tibble [2,000 x 2]>        4.98  5.27        5.55
##  3     3 <tibble [2,000 x 2]>        4.97  5.25        5.52
##  4     4 <tibble [2,000 x 2]>        5.12  5.40        5.67
##  5     5 <tibble [2,000 x 2]>        5.15  5.44        5.71
##  6     6 <tibble [2,000 x 2]>        4.93  5.21        5.49
##  7     7 <tibble [2,000 x 2]>        4.67  4.94        5.22
##  8     8 <tibble [2,000 x 2]>        4.85  5.13        5.40
##  9     9 <tibble [2,000 x 2]>        4.87  5.14        5.41
## 10    10 <tibble [2,000 x 2]>        5.14  5.41        5.69
## # ... with 723 more rows
…
# create 2000 models from bootstrap resamples and make predictions on the test set
set.seed(345)
penguins_preds_boot <-
  penguins_wf %>%
  predict_boots(
    n = 2000,
    training_data = penguins_train,
    new_data = penguins_test
  )

penguins_preds_boot %>%
  summarise_predictions()

## # A tibble: 84 x 5
##    rowid .preds               .pred_lower .pred .pred_upper
##    <int> <list>                     <dbl> <dbl>       <dbl>
##  1     1 <tibble [2,000 x 2]>       2788. 3470.       4136.
##  2     2 <tibble [2,000 x 2]>       2838. 3534.       4231.
##  3     3 <tibble [2,000 x 2]>       2942. 3598.       4301.
##  4     4 <tibble [2,000 x 2]>       3354. 4158.       4889.
##  5     5 <tibble [2,000 x 2]>       3186. 3870.       4500.
##  6     6 <tibble [2,000 x 2]>       2884. 3519.       4208.
##  7     7 <tibble [2,000 x 2]>       2790. 3434.       4094.
##  8     8 <tibble [2,000 x 2]>       3394. 4071.       4772.
##  9     9 <tibble [2,000 x 2]>       2812. 3447.       4096.
## 10    10 <tibble [2,000 x 2]>       2744. 3404.       4063.
## # ... with 74 more rows
…
