the data diary - Introducing {nplyr}
…
Code

# if we unnest, we can see that a new column for pop_millions has been created
gm_nest_example %>%
  slice_head(n = 1) %>%
  tidyr::unnest(country_data)

#> # A tibble: 43 × 7
#>    continent country           year lifeExp        pop gdpPercap pop_millions
#>    <fct>     <fct>            <int>   <dbl>      <int>     <dbl>        <dbl>
#>  1 Asia      Afghanistan       2007    43.8   31889923      975.       31.9  
#>  2 Asia      Azerbaijan        2007    67.5    8017309     7709.        8.02 
#>  3 Asia      Bahrain           2007    75.6     708573    29796.        0.709
#>  4 Asia      Bangladesh        2007    64.1  150448339     1391.      150.   
#>  5 Asia      Bhutan            2007    65.6    2327849     4745.        2.33 
#>  6 Asia      Brunei            2007    77.1     386511    48015.        0.387
#>  7 Asia      Cambodia          2007    59.7   14131858     1714.       14.1  
#>  8 Asia      China             2007    73.0 1318683096     4959.     1319.   
#>  9 Asia      Hong Kong, China  2007    82.2    6980412    39725.        6.98 
#> 10 Asia      India             2007    64.7 1110396331     2452.     1110.   
#> # … with 33 more rows
…
Code

# unnesting shows summarised tibbles for each continent
gm_nest_example %>%
  slice(2) %>%
  tidyr::unnest(country_data)

#> # A tibble: 58 × 6
#>    continent  year     n lifeExp      pop gdpPercap
#>    <fct>     <int> <int>   <dbl>    <dbl>     <dbl>
#>  1 Europe     1950    22    65.8 7408264      6343.
#>  2 Europe     1951    18    65.7 7165515      6509.
#>  3 Europe     1952    31    65.9 7124673      5210.
#>  4 Europe     1953    17    67.3 7346100      6774.
#>  5 Europe     1954    17    68.0 7423300      7046.
#>  6 Europe     1955    17    68.5 7499400      7817.
#>  7 Europe     1956    17    68.5 7575800      8224.
#>  8 Europe     1957    31    67.5 7363802      6093.
#>  9 Europe     1958    18    69.6 8308052.     8833.
#> 10 Europe     1959    18    69.6 8379664.     9088.
#> # … with 48 more rows

Other use cases

In the previous set of examples, the output from nplyr’s nested operations could be obtained by unnesting and performing grouped dplyr operations.

Code

# we can use nplyr to perform operations on the nested data
gm_nest %>%
  nest_filter(country_data, year == max(year)) %>%
  nest_mutate(country_data, pop_millions = pop/1000000) %>%
  slice_head(n = 1) %>%
  tidyr::unnest(country_data)

#> # A tibble: 43 × 7
#>    continent country           year lifeExp        pop gdpPercap pop_millions
#>    <fct>     <fct>            <int>   <dbl>      <int>     <dbl>        <dbl>
#>  1 Asia      Afghanistan       2007    43.8   31889923      975.       31.9  
#>  2 Asia      Azerbaijan        2007    67.5    8017309     7709.        8.02 
#>  3 Asia      Bahrain           2007    75.6     708573    29796.        0.709
#>  4 Asia      Bangladesh        2007    64.1  150448339     1391.      150.   
#>  5 Asia      Bhutan            2007    65.6    2327849     4745.        2.33 
#>  6 Asia      Brunei            2007    77.1     386511    48015.        0.387
#>  7 Asia      Cambodia          2007    59.7   14131858     1714.       14.1  
#>  8 Asia      China             2007    73.0 1318683096     4959.     1319.   
#>  9 Asia      Hong Kong, China  2007    82.2    6980412    39725.        6.98 
#> 10 Asia      India             2007    64.7 1110396331     2452.     1110.   
#> # … with 33 more rows

Code

# in this case, we could have obtained the same result with tidyr and dplyr
gm_nest %>%
  tidyr::unnest(country_data) %>%
  group_by(continent) %>%
  filter(year == max(year)) %>%
  mutate(pop_millions = pop/1000000) %>%
  ungroup() %>%
  filter(continent == "Asia")

#> # A tibble: 43 × 7
#>    continent country           year lifeExp        pop gdpPercap pop_millions
#>    <fct>     <fct>            <int>   <dbl>      <int>     <dbl>        <dbl>
#>  1 Asia      Afghanistan       2007    43.8   31889923      975.       31.9  
#>  2 Asia      Azerbaijan        2007    67.5    8017309     7709.        8.02 
#>  3 Asia      Bahrain           2007    75.6     708573    29796.        0.709
#>  4 Asia      Bangladesh        2007    64.1  150448339     1391.      150.   
#>  5 Asia      Bhutan            2007    65.6    2327849     4745.        2.33 
#>  6 Asia      Brunei            2007    77.1     386511    48015.        0.387
#>  7 Asia      Cambodia          2007    59.7   14131858     1714.       14.1  
#>  8 Asia      China             2007    73.0 1318683096     4959.     1319.   
#>  9 Asia      Hong Kong, China  2007    82.2    6980412    39725.        6.98 
#> 10 Asia      India             2007    64.7 1110396331     2452.     1110.   
#> # … with 33 more rows
…
surveys %>%
  slice(1) %>%
  tidyr::unnest(survey_data)

#> # A tibble: 500 × 10
#>    survey_file survey_name    Q1 Q2    Q3    Q4       Q5 age_g…¹ n_res…² media…³
#>    <chr>       <chr>       <dbl> <chr> <chr> <chr> <dbl> <chr>     <int>   <dbl>
#>  1 job_survey  job           100 Aust… Cons… Some…   163 Retire…     107    57  
#>  2 job_survey  job            81 San … Cons… Neit…    48 Retire…     107    57  
#>  3 job_survey  job            51 Aust… Cons… Extr…   190 Adult       107    57  
#>  4 job_survey  job            81 Aust… Tech… Extr…    25 Retire…     108    61.5
#>  5 job_survey  job            80 Dall… Cons… Extr…   143 Retire…     107    57  
#>  6 job_survey  job            32 Fort… Ener… Some…   233 Adult        99    59  
#>  7 job_survey  job            65 Dall… Cons… Some…    43 Retire…     107    57  
#>  8 job_survey  job            57 Hous… Heal… Some…   243 Adult        75    65  
#>  9 job_survey  job            43 Dall… Gove… Neit…   158 Adult       111    57  
#> 10 job_survey  job            94 Fort… Heal… Extr…   235 Retire…      75    65  
#> # … with 490 more rows, and abbreviated variable names ¹​age_group,
#> #   ²​n_respondents_in_industry, ³​median_industry_age

Code

surveys %>%
  slice(2) %>%
  tidyr::unnest(survey_data)

#> # A tibble: 750 × 10
#>    survey_file     surve…¹    Q1 Q2    Q3    Q4    Q5    age_g…² n_res…³ media…⁴
#>    <chr>           <chr>   <dbl> <chr> <chr> <chr> <chr> <chr>     <int>   <dbl>
#>  1 personal_survey person…    91 Aust… Ener… Neit… Blan… Retire…     145      61
#>  2 personal_survey person…    32 San … Heal… Extr… Elem… Adult       131      62
#>  3 personal_survey person…    40 San … Cons… Some… Eget… Adult       149      61
#>  4 personal_survey person…    23 Aust… Cons… Extr… Scel… Adult       149      61
#>  5 personal_survey person…    88 Dall… Tech… Neit… Aene… Retire…     150      61
#>  6 personal_survey person…    69 Fort… Tech… Neit… Inte… Retire…     150      61
#>  7 personal_survey person…    96 Hous… Heal… Extr… Blan… Retire…     131      62
#>  8 personal_survey person…    40 Hous… Cons… Extr… Scel… Adult       149      61
#>  9 personal_survey person…    57 Fort… Ener… Extr… Pede… Adult       145      61
#> 10 personal_survey person…    40 Fort… Heal… Extr… Phar… Adult       131      62
#> # … with 740 more rows, and abbreviated variable names ¹​survey_name,
#> #   ²​age_group, ³​n_respondents_in_industry, ⁴​median_industry_age
…
