Introducing {workboots} | the data diary
…
predict_boots() works by creating 2000 bootstrap resamples of the training data, fitting a linear model to each resample, then generating 2000 predictions for each home’s price in the holdout set. We can then use summarise_predictions() to generate upper and lower intervals for each prediction.

ames_preds_boot %>%
  summarise_predictions()

## # A tibble: 733 x 5
##    rowid .preds               .pred_lower .pred .pred_upper
##    <int> <list>                     <dbl> <dbl>       <dbl>
##  1     1 <tibble [2,000 x 2]>        5.17  5.44        5.71
##  2     2 <tibble [2,000 x 2]>        4.98  5.27        5.55
##  3     3 <tibble [2,000 x 2]>        4.97  5.25        5.52
##  4     4 <tibble [2,000 x 2]>        5.12  5.40        5.67
##  5     5 <tibble [2,000 x 2]>        5.15  5.44        5.71
##  6     6 <tibble [2,000 x 2]>        4.93  5.21        5.49
##  7     7 <tibble [2,000 x 2]>        4.67  4.94        5.22
##  8     8 <tibble [2,000 x 2]>        4.85  5.13        5.40
##  9     9 <tibble [2,000 x 2]>        4.87  5.14        5.41
## 10    10 <tibble [2,000 x 2]>        5.14  5.41        5.69
## # ... with 723 more rows
…
