the data diary - Introducing {workboots}
…
predict_boots() works by creating 2000 bootstrap resamples of the training data, fitting a linear model to each resample, then generating 2000 predictions for each home’s price in the holdout set. We can then use summarise_predictions() to generate upper and lower intervals for each prediction.

Code

ames_preds_boot %>%
  summarise_predictions()

#> # A tibble: 733 × 5
#>    rowid .preds               .pred .pred_lower .pred_upper
#>    <int> <list>               <dbl>       <dbl>       <dbl>
#>  1     1 <tibble [2,000 × 2]>  5.44        5.17        5.71
#>  2     2 <tibble [2,000 × 2]>  5.27        4.98        5.55
#>  3     3 <tibble [2,000 × 2]>  5.25        4.97        5.52
#>  4     4 <tibble [2,000 × 2]>  5.40        5.11        5.67
#>  5     5 <tibble [2,000 × 2]>  5.44        5.15        5.71
#>  6     6 <tibble [2,000 × 2]>  5.21        4.93        5.49
#>  7     7 <tibble [2,000 × 2]>  4.94        4.67        5.22
#>  8     8 <tibble [2,000 × 2]>  5.13        4.85        5.40
#>  9     9 <tibble [2,000 × 2]>  5.14        4.87        5.42
#> 10    10 <tibble [2,000 × 2]>  5.41        5.13        5.69
#> # … with 723 more rows
…
