…
  # normalize continuous vars
  bestNormalize::step_best_normalize(carat, depth, table, x, y, z)

Let’s bake our recipe to verify that everything looks up-to-snuff in the preprocessed dataset.

baked_rec02 <- 
  rec02 %>%
  prep() %>%
  bake(new_data = NULL)

baked_rec02

## # A tibble: 80,495 x 20
##      carat cut        depth  table       x       y      z price color_E color_F
##      <dbl> <fct>      <dbl>  <dbl>   <dbl>   <dbl>  <dbl> <dbl>   <dbl>   <dbl>
##  1 -0.706  Premium    0.138 -0.760 -0.709  -0.738  -0.695  3.01       0       1
##  2  0.356  Very Good  0.570  0.835  0.342   0.251   0.344  3.63       0       0
##  3  0.214  Premium   -0.308  0.835  0.293   0.263   0.166  3.58       0       0
##  4 -1.08   other      1.04  -0.310 -1.30   -1.40   -0.995  2.70       0       0
##  5 -0.641  Ideal     -0.602 -0.760 -0.595  -0.560  -0.622  2.97       0       0
##  6 -0.0759 Premium   -0.602  0.494 -0.0349 -0.0460 -0.114  3.38       0       0
##  7 -0.149  Premium   -1.16   0.103 -0.0565 -0.0842 -0.246  3.44       1       0
##  8  0.170  Very Good -0.371  0.494  0.178   0.313   0.130  3.56       0       1
##  9 -0.736  Ideal     -0.110 -0.760 -0.709  -0.738  -0.723  3.09       0       0
## 10  0.782  Ideal     -0.602 -0.310  0.819   0.846   0.732  4.02       0       0
## # ... with 80,485 more rows, and 10 more variables: color_G <dbl>,
## #   color_H <dbl>, color_I <dbl>, color_J <dbl>, clarity_SI2 <dbl>,
## #   clarity_VS1 <dbl>, clarity_VS2 <dbl>, clarity_VVS1 <dbl>,
## #   clarity_VVS2 <dbl>, clarity_other <dbl>
…
<img src="{{< blogdown/postref >}}index_files/figure-html/unnamed-chunk-17-6.png" width="2400" />

baked_rec02 %>%
  ggplot(aes(x = z)) +
  geom_histogram()

<img src="{{< blogdown/postref >}}index_files/figure-html/unnamed-chunk-17-7.png" width="2400" />

Everything looks alright with the exception of the table predictor. I wonder if there are a lot of repeated values in the table variable - that may be why we’re seeing a “chunky” histogram. Let’s check

baked_rec02 %>%
  count(table) %>%
  arrange(desc(n))

## # A tibble: 10,406 x 2
##     table     n
##     <dbl> <int>
##  1  0.103 12167
##  2 -0.310 11408
##  3 -0.760 11031
##  4  0.494  9406
##  5 -1.28   6726
##  6  0.835  6165
##  7  1.15   3810
##  8 -1.85   2789
##  9  1.42   2182
## 10  1.64    972
## # ... with 10,396 more rows
…
