Introducing {nplyr} | the data diary
…
# if we unnest, we can see that a new column for pop_millions has been created
gm_nest_example %>%
  slice_head(n = 1) %>%
  tidyr::unnest(country_data)

## # A tibble: 43 × 7
##    continent country           year lifeExp        pop gdpPercap pop_millions
##    <fct>     <fct>            <int>   <dbl>      <int>     <dbl>        <dbl>
##  1 Asia      Afghanistan       2007    43.8   31889923      975.       31.9  
##  2 Asia      Azerbaijan        2007    67.5    8017309     7709.        8.02 
##  3 Asia      Bahrain           2007    75.6     708573    29796.        0.709
##  4 Asia      Bangladesh        2007    64.1  150448339     1391.      150.   
##  5 Asia      Bhutan            2007    65.6    2327849     4745.        2.33 
##  6 Asia      Brunei            2007    77.1     386511    48015.        0.387
##  7 Asia      Cambodia          2007    59.7   14131858     1714.       14.1  
##  8 Asia      China             2007    73.0 1318683096     4959.     1319.   
##  9 Asia      Hong Kong, China  2007    82.2    6980412    39725.        6.98 
## 10 Asia      India             2007    64.7 1110396331     2452.     1110.   
## # … with 33 more rows
…
# unnesting shows summarised tibbles for each continent
gm_nest_example %>%
  slice(2) %>%
  tidyr::unnest(country_data)

## # A tibble: 58 × 6
##    continent  year     n lifeExp      pop gdpPercap
##    <fct>     <int> <int>   <dbl>    <dbl>     <dbl>
##  1 Europe     1950    22    65.8 7408264      6343.
##  2 Europe     1951    18    65.7 7165515      6509.
##  3 Europe     1952    31    65.9 7124673      5210.
##  4 Europe     1953    17    67.3 7346100      6774.
##  5 Europe     1954    17    68.0 7423300      7046.
##  6 Europe     1955    17    68.5 7499400      7817.
##  7 Europe     1956    17    68.5 7575800      8224.
##  8 Europe     1957    31    67.5 7363802      6093.
##  9 Europe     1958    18    69.6 8308052.     8833.
## 10 Europe     1959    18    69.6 8379664.     9088.
## # … with 48 more rows

Other use cases

In the previous set of examples, the output from nplyr’s nested operations could be obtained by unnesting and performing grouped dplyr operations.

# we can use nplyr to perform operations on the nested data
gm_nest %>%
  nest_filter(country_data, year == max(year)) %>%
  nest_mutate(country_data, pop_millions = pop/1000000) %>%
  slice_head(n = 1) %>%
  tidyr::unnest(country_data)

## # A tibble: 43 × 7
##    continent country           year lifeExp        pop gdpPercap pop_millions
##    <fct>     <fct>            <int>   <dbl>      <int>     <dbl>        <dbl>
##  1 Asia      Afghanistan       2007    43.8   31889923      975.       31.9  
##  2 Asia      Azerbaijan        2007    67.5    8017309     7709.        8.02 
##  3 Asia      Bahrain           2007    75.6     708573    29796.        0.709
##  4 Asia      Bangladesh        2007    64.1  150448339     1391.      150.   
##  5 Asia      Bhutan            2007    65.6    2327849     4745.        2.33 
##  6 Asia      Brunei            2007    77.1     386511    48015.        0.387
##  7 Asia      Cambodia          2007    59.7   14131858     1714.       14.1  
##  8 Asia      China             2007    73.0 1318683096     4959.     1319.   
##  9 Asia      Hong Kong, China  2007    82.2    6980412    39725.        6.98 
## 10 Asia      India             2007    64.7 1110396331     2452.     1110.   
## # … with 33 more rows

# in this case, we could have obtained the same result with tidyr and dplyr
gm_nest %>%
  tidyr::unnest(country_data) %>%
  group_by(continent) %>%
  filter(year == max(year)) %>%
  mutate(pop_millions = pop/1000000) %>%
  ungroup() %>%
  filter(continent == "Asia")

## # A tibble: 43 × 7
##    continent country           year lifeExp        pop gdpPercap pop_millions
##    <fct>     <fct>            <int>   <dbl>      <int>     <dbl>        <dbl>
##  1 Asia      Afghanistan       2007    43.8   31889923      975.       31.9  
##  2 Asia      Azerbaijan        2007    67.5    8017309     7709.        8.02 
##  3 Asia      Bahrain           2007    75.6     708573    29796.        0.709
##  4 Asia      Bangladesh        2007    64.1  150448339     1391.      150.   
##  5 Asia      Bhutan            2007    65.6    2327849     4745.        2.33 
##  6 Asia      Brunei            2007    77.1     386511    48015.        0.387
##  7 Asia      Cambodia          2007    59.7   14131858     1714.       14.1  
##  8 Asia      China             2007    73.0 1318683096     4959.     1319.   
##  9 Asia      Hong Kong, China  2007    82.2    6980412    39725.        6.98 
## 10 Asia      India             2007    64.7 1110396331     2452.     1110.   
## # … with 33 more rows
…
surveys %>%
  slice(1) %>%
  tidyr::unnest(survey_data)

## # A tibble: 500 × 10
##    survey_file survey_name    Q1 Q2          Q3            Q4       Q5 age_group
##    <chr>       <chr>       <dbl> <chr>       <chr>         <chr> <dbl> <chr>    
##  1 job_survey  job           100 Austin      Consulting    Some…   163 Retireme…
##  2 job_survey  job            81 San Antonio Consulting    Neit…    48 Retireme…
##  3 job_survey  job            51 Austin      Consulting    Extr…   190 Adult    
##  4 job_survey  job            81 Austin      Technology    Extr…    25 Retireme…
##  5 job_survey  job            80 Dallas      Consulting    Extr…   143 Retireme…
##  6 job_survey  job            32 Fort Worth  Energy        Some…   233 Adult    
##  7 job_survey  job            65 Dallas      Consulting    Some…    43 Retireme…
##  8 job_survey  job            57 Houston     Healthcare    Some…   243 Adult    
##  9 job_survey  job            43 Dallas      Government S… Neit…   158 Adult    
## 10 job_survey  job            94 Fort Worth  Healthcare    Extr…   235 Retireme…
## # … with 490 more rows, and 2 more variables: n_respondents_in_industry <int>,
## #   median_industry_age <dbl>

surveys %>%
  slice(2) %>%
  tidyr::unnest(survey_data)

## # A tibble: 750 × 10
##    survey_file     survey_name    Q1 Q2          Q3        Q4    Q5    age_group
##    <chr>           <chr>       <dbl> <chr>       <chr>     <chr> <chr> <chr>    
##  1 personal_survey personal       91 Austin      Energy    Neit… Blan… Retireme…
##  2 personal_survey personal       32 San Antonio Healthca… Extr… Elem… Adult    
##  3 personal_survey personal       40 San Antonio Consulti… Some… Eget… Adult    
##  4 personal_survey personal       23 Austin      Consulti… Extr… Scel… Adult    
##  5 personal_survey personal       88 Dallas      Technolo… Neit… Aene… Retireme…
##  6 personal_survey personal       69 Fort Worth  Technolo… Neit… Inte… Retireme…
##  7 personal_survey personal       96 Houston     Healthca… Extr… Blan… Retireme…
##  8 personal_survey personal       40 Houston     Consulti… Extr… Scel… Adult    
##  9 personal_survey personal       57 Fort Worth  Energy    Extr… Pede… Adult    
## 10 personal_survey personal       40 Fort Worth  Healthca… Extr… Phar… Adult    
## # … with 740 more rows, and 2 more variables: n_respondents_in_industry <int>,
## #   median_industry_age <dbl>
…
