the data diary - Pull Yourself Up by Your Bootstraps
…
#> 
#>  Downloading file 1 of 2: `penguins.csv`
#>  Downloading file 2 of 2: `penguins_raw.csv`

Code

# extract out the penguins dataset
penguins <- penguins_src$penguins
rm(penguins_src)

penguins

#> # A tibble: 344 × 8
#>    species island    bill_length_mm bill_depth_mm flipper_…¹ body_…² sex    year
#>    <chr>   <chr>              <dbl>         <dbl>      <dbl>   <dbl> <chr> <dbl>
#>  1 Adelie  Torgersen           39.1          18.7        181    3750 male   2007
#>  2 Adelie  Torgersen           39.5          17.4        186    3800 fema…  2007
#>  3 Adelie  Torgersen           40.3          18          195    3250 fema…  2007
#>  4 Adelie  Torgersen           NA            NA           NA      NA <NA>   2007
#>  5 Adelie  Torgersen           36.7          19.3        193    3450 fema…  2007
#>  6 Adelie  Torgersen           39.3          20.6        190    3650 male   2007
#>  7 Adelie  Torgersen           38.9          17.8        181    3625 fema…  2007
#>  8 Adelie  Torgersen           39.2          19.6        195    4675 male   2007
#>  9 Adelie  Torgersen           34.1          18.1        193    3475 <NA>   2007
#> 10 Adelie  Torgersen           42            20.2        190    4250 <NA>   2007
#> # … with 334 more rows, and abbreviated variable names ¹​flipper_length_mm,
#> #   ²​body_mass_g

We’ll need to do some lite preprocessing before we start modeling — it looks like there are some NAs in body_mass_g and in sex. If I were creating a more serious model, I might keep the rows with NAs for sex, but since there are so few and this is an explainer, I’ll just filter them out.

Code

# remove NA from body_mass_g and sex
penguins <- 
  penguins %>%
  filter(!is.na(body_mass_g),
         !is.na(sex))

penguins

#> # A tibble: 333 × 8
#>    species island    bill_length_mm bill_depth_mm flipper_…¹ body_…² sex    year
#>    <chr>   <chr>              <dbl>         <dbl>      <dbl>   <dbl> <chr> <dbl>
#>  1 Adelie  Torgersen           39.1          18.7        181    3750 male   2007
#>  2 Adelie  Torgersen           39.5          17.4        186    3800 fema…  2007
#>  3 Adelie  Torgersen           40.3          18          195    3250 fema…  2007
#>  4 Adelie  Torgersen           36.7          19.3        193    3450 fema…  2007
#>  5 Adelie  Torgersen           39.3          20.6        190    3650 male   2007
#>  6 Adelie  Torgersen           38.9          17.8        181    3625 fema…  2007
#>  7 Adelie  Torgersen           39.2          19.6        195    4675 male   2007
#>  8 Adelie  Torgersen           41.1          17.6        182    3200 fema…  2007
#>  9 Adelie  Torgersen           38.6          21.2        191    3800 male   2007
#> 10 Adelie  Torgersen           34.6          21.1        198    4400 male   2007
#> # … with 323 more rows, and abbreviated variable names ¹​flipper_length_mm,
#> #   ²​body_mass_g
…
Bootstrap datasets allow us to create many datasets from the original dataset and evaluate models across these bootstraps. Models that are well informed will give similar outputs across each dataset, despite of the randomness within each dataset, whereas less confident models will have a wider variation across the bootstrapped datasets.

Generating some confident penguins

Let’s say we want to use {xgboost} to predict penguin weight and we’ll use bootstrapping to generate a confidence interval. Firstly, we’ll create the bootstrap datasets from our training set.

Code

penguins_boot <- penguins_train %>% bootstraps()

penguins_boot

#> # Bootstrap sampling 
#> # A tibble: 25 × 2
#>    splits           id         
#>    <list>           <chr>      
#>  1 <split [249/92]> Bootstrap01
#>  2 <split [249/90]> Bootstrap02
#>  3 <split [249/91]> Bootstrap03
#>  4 <split [249/87]> Bootstrap04
#>  5 <split [249/98]> Bootstrap05
#>  6 <split [249/84]> Bootstrap06
#>  7 <split [249/91]> Bootstrap07
#>  8 <split [249/95]> Bootstrap08
#>  9 <split [249/94]> Bootstrap09
#> 10 <split [249/86]> Bootstrap10
#> # … with 15 more rows
…
  read_rds(paste0("models/model_", index, ".rds")) %>%
    predict(new_data) %>%
    rename(!!sym(paste0("pred_", index)) := .pred)
  
}

# predict!
training_preds <- 
  seq(1, 25) %>%
  map_dfc(~predict_bootstrap(penguins_train, .x))

training_preds

#> # A tibble: 249 × 25
#>    pred_1 pred_2 pred_3 pred_4 pred_5 pred_6 pred_7 pred_8 pred_9 pred_10
#>     <dbl>  <dbl>  <dbl>  <dbl>  <dbl>  <dbl>  <dbl>  <dbl>  <dbl>   <dbl>
#>  1  5552.  5638.  5555.  5703.  5726.  5783.  5404.  5566.  5493.   5547.
#>  2  3470.  3340.  3334.  3350.  3311.  3303.  3315.  3421.  3692.   3436.
#>  3  5309.  5274.  5241.  5286.  5206.  5084.  5506.  5531.  5274.   5309.
#>  4  4160.  4013.  3988.  4111.  4075.  4073.  4284.  4050.  4033.   4033.
#>  5  4003.  3931.  4096.  3968.  4008.  3918.  3941.  4093.  3941.   3880.
#>  6  3967.  4039.  4095.  4047.  4021.  4055.  3980.  4115.  4067.   4084.
#>  7  4647.  4551.  4750.  4555.  4690.  4396.  4235.  4686.  4764.   4659.
#>  8  5240.  5288.  5291.  5276.  5308.  5508.  5570.  5375.  5340.   5268.
#>  9  4138.  4111.  4106.  4236.  4135.  4219.  4218.  4211.  4160.   4071.
#> 10  4728.  4723.  4715.  4823.  4765.  4727.  4836.  4777.  4765.   4633.
#> # … with 239 more rows, and 15 more variables: pred_11 <dbl>, pred_12 <dbl>,
#> #   pred_13 <dbl>, pred_14 <dbl>, pred_15 <dbl>, pred_16 <dbl>, pred_17 <dbl>,
#> #   pred_18 <dbl>, pred_19 <dbl>, pred_20 <dbl>, pred_21 <dbl>, pred_22 <dbl>,
#> #   pred_23 <dbl>, pred_24 <dbl>, pred_25 <dbl>
…
